{
  "scenarios": [
    {
      "invalidate": false,
      "json": {
        "general_settings": {
          "incumbent": ["baseline"]
        }
      },
      "name": "Baseline",
      "optimization_algorithm": "",
      "status": "in_progress"
    },
    {
      "invalidate": false,
      "json": {
        "general_settings": {
          "volume": [],
          "split_items": false,
          "rebates": true,
          "incumbent": ["general"],
          "partial_allocation": true
        }
      },
      "name": "No Supplier Changes",
      "optimization_algorithm": "",
      "status": "in_progress"
    },
    {
      "invalidate": false,
      "json": {
        "general_settings": {
          "volume": [],
          "split_items": false,
          "rebates": true,
          "incumbent": ["custom"],
          "partial_allocation": true
        }
      },
      "name": "Best Price",
      "optimization_algorithm": "",
      "status": "in_progress"
    }
  ]
}
