{
    "FileType": {
        "AllocationsTable": "allocations",
        "CurrenciesTable":  "currencies",
        "DemandsTable":     "demands",
        "DiscountsTable":   "discounts",
        "DutiesTable":      "duties",
        "OffersTable":      "offers",
        "OverridesTable":   "overrides"
    },

    "TableData": {},

    "Normalization": {
        "Expression": "",
        "Soft_Constraints": [
            "RiskScore"
        ],
        "Price_Components": [
            "Material Cost",
            "Production Cost",
            "Logistics Cost"
        ],
        "Filters":
        ["Region"]
    },
    
    "AllocationsTable": {},

    "CurrenciesTable": {
        "Currency":      "CURRENCY",
        "RateUSDtoCurr": "RATE_USD_TO_CURR"
    },

    "DemandsTable": {
        "Item_ID":                  "ITEM_ID",
        "Volume":                   "VOLUME",
        "HistoricSupplier":         "PRIOR_SUPPLIER",
        "ContributingToRebate":      "CONTRIBUTING_TO",
        "DiscountedByRebate":       "DISCOUNTED_BY",
        "HistoricPrice":           "PRIOR_PRICE",
        "Region":            "REGION"
    },

    "DiscountsTable": {
        "RebateGroup":      "BUCKET_ID",
        "TargetVolume":     "TARGET_VOLUME",
        "DiscountAmount":   "DISCOUNT_AMOUNT",
        "Supplier":         "SUPPLIER_ID",
        "UoM":              "DISCOUNT_TYPE",
        "Considered":       "CONSIDERED"
    },

    "DutiesTable": {
        "CountrySupplier":      "SUPPLIER_COUNTRY",
        "CountryDestination":   "CLIENT_COUNTRY",
        "Duty":                 "DUTY_PERCENT"
    },

    "OffersTable": {
        "Item_ID":              "ITEM_ID",
        "Supplier":             "SUPPLIER",
        "Volume":               "VOLUME",
        "Raw Price":         "RAW_PRICE",
        "Currency":             "CURRENCY",
        "PaymentTerm":          "PAYMENT_DURATION",
        "CountrySupplier":      "SUPPLIER_COUNTRY",
        "CountryDestination":   "CLIENT_COUNTRY",
        "VerifiedSupplier":     "VERIFIED",
        "ConsideredSupplier":   "CONSIDERED",
        "ContributingToRebate": "CONTRIBUTING_TO",
        "DiscountedByRebate":   "DISCOUNTED_BY",
        "Region":               "REGION"
    },

    "OverridesTable": {
        "RMS_Site": "ITEM_ID",
        "Supplier": "SUPPLIER",
        "Type":     "OPERATION",
        "Quantity": "QUANTITY",
        "Unit":     "UNIT"
    }
}