,item,total_volume,supplier,ContributingToRebate,DiscountedByRebate,price,region,demand_id,status
0,Mitte-Frankfurt/M.-Frankfurt/M.,1,Pfeil Sicherung GmbH,,,10000,Los 1-Mitte,0,valid
1,Mitte-Frankfurt/M.-Aschaffenburg,1,Knorre Baumdienst GmbH,,,10000,Los 1-Mitte,1,valid
2,Mitte-Frankfurt/M.-Gießen,1,Gleisbau Bautzen GmbH,,,10000,Los 1-Mitte,2,valid
3,Mitte-Frankfurt/M.-Hanau,1,Bahndienste Lang GmbH,,,10000,Los 1-Mitte,3,valid
4,Mitte-Frankfurt/M.-Limburg,1,Becker Security GmbH,,,10000,Los 1-Mitte,4,valid
5,Mitte-Koblenz-Koblenz,1,Pfeil Sicherung GmbH,,,10000,Los 1-Mitte,5,valid
6,Mitte-Koblenz-Trier,1,Knorre Baumdienst GmbH,,,10000,Los 1-Mitte,6,valid
7,Mitte-Koblenz-Cochem,1,Gleisbau Bautzen GmbH,,,10000,Los 1-Mitte,7,valid
8,Mitte-Koblenz-Gerolstein,1,Bahndienste Lang GmbH,,,10000,Los 1-Mitte,8,valid
9,Mitte-Kassel-Kassel,1,Becker Security GmbH,,,10000,Los 1-Mitte,9,valid
10,Mitte-Kassel-Fulda,1,Pfeil Sicherung GmbH,,,10000,Los 1-Mitte,10,valid
11,Mitte-Kassel-Bebra,1,Knorre Baumdienst GmbH,,,10000,Los 1-Mitte,11,valid
12,Mitte-Kassel-Treysa,1,Gleisbau Bautzen GmbH,,,10000,Los 1-Mitte,12,valid
13,Mitte-Mainz-Mainz,1,Bahndienste Lang GmbH,,,10000,Los 1-Mitte,13,valid
14,Mitte-Mainz-Bingen,1,Becker Security GmbH,,,10000,Los 1-Mitte,14,valid
15,Mitte-Mainz-Darmstadt,1,Pfeil Sicherung GmbH,,,10000,Los 1-Mitte,15,valid
16,Nord-Bremen-Bremen,1,Knorre Baumdienst GmbH,,,10000,Los 1-Nord,16,valid
17,Nord-Bremen-Bremerhaven,1,Pfeil Sicherung GmbH,,,10000,Los 1-Nord,17,valid
18,Nord-Bremen-Verden,1,Knorre Baumdienst GmbH,,,10000,Los 1-Nord,18,valid
19,Nord-Bremen-Oldenburg,1,Gleisbau Bautzen GmbH,,,10000,Los 1-Nord,19,valid
20,Nord-Bremen-Leer,1,Bahndienste Lang GmbH,,,10000,Los 1-Nord,20,valid
21,Nord-Hannover-Hannover,1,Becker Security GmbH,,,10000,Los 1-Nord,21,valid
22,Nord-Hannover-Braunschweig,1,Pfeil Sicherung GmbH,,,10000,Los 1-Nord,22,valid
23,Nord-Hannover-Göttingen,1,Knorre Baumdienst GmbH,,,10000,Los 1-Nord,23,valid
24,Nord-Hannover-Hameln,1,Gleisbau Bautzen GmbH,,,10000,Los 1-Nord,24,valid
25,Nord-Hannover-Lehrte,1,Bahndienste Lang GmbH,,,10000,Los 1-Nord,25,valid
26,Nord-Hannover-Kreiensen,1,Becker Security GmbH,,,10000,Los 1-Nord,26,valid
27,Nord-Hamburg-HamburgHarburg,1,Pfeil Sicherung GmbH,,,10000,Los 1-Nord,27,valid
28,Nord-Hamburg-Billwerder,1,Knorre Baumdienst GmbH,,,10000,Los 1-Nord,28,valid
29,Nord-Hamburg-HamburgAltona,1,Gleisbau Bautzen GmbH,,,10000,Los 1-Nord,29,valid
30,Mitte-1-49-Frankfurt-Frankfurt S,1,Bahndienste Lang GmbH,,,10000,Los 4-Mitte,30,valid
31,Mitte-1-50-Frankfurt-Frankfurt S,1,Becker Security GmbH,,,10000,Los 4-Mitte,31,valid
32,Mitte-4-132-Wetterau-Wetterau,1,Pfeil Sicherung GmbH,,,10000,Los 4-Mitte,32,valid
33,Mitte-4-137R-Wetterau-Wetterau,1,Knorre Baumdienst GmbH,,,10000,Los 4-Mitte,33,valid
34,Mitte-5-56-Frankfurt-Limburg,1,Pfeil Sicherung GmbH,,,10000,Los 4-Mitte,34,valid
35,Mitte-5-124-Westerwald-Westerwald,1,Knorre Baumdienst GmbH,,,10000,Los 4-Mitte,35,valid
36,Mitte-6-103-Koblenz-Koblenz,1,Gleisbau Bautzen GmbH,,,10000,Los 4-Mitte,36,valid
