,item,total_volume,total_price,supplier,region,Type,contributing_to,discounted_by,demand_id,status
0,Item_0001,15.59,185.13,SABIC,Asia,Standard,,,0,valid
1,Item_0002,9.57,377.87,DuPont,Asia,Standard,,,1,valid
2,Item_0003,2642.95,186.49,SABIC,Asia,Critical,,,2,valid
3,Item_0004,36.08,223.66,Clariant,Europe,Standard,,,3,valid
4,Item_0005,2995.95,217.22,SABIC,Asia,Critical,,,4,valid
5,Item_0006,1733.52,193.52,SABIC,Asia,Critical,,,5,valid
6,Item_0007,29.74,246.19,Clariant,Europe,Standard,,,6,valid
7,Item_0008,1571.86,183.54,SABIC,Asia,Critical,,,7,valid
8,Item_0009,144.76,189.46,Clariant,Europe,Critical,,,8,valid
9,Item_0010,94.86,248.76,Clariant,Europe,Critical,,,9,valid
10,Item_0011,4412.17,192.32,SABIC,Asia,Critical,,,10,valid
11,Item_0012,99.08,186.22,SABIC,Asia,Critical,,,11,valid
12,Item_0014,131.54,254.6,DuPont,Asia,Critical,,,12,valid
13,Item_0015,229.63,180.98,SABIC,Asia,Critical,,,13,valid
14,Item_0016,43.73,159.39,DuPont,Asia,Critical,,,14,valid
15,Item_0017,653.46,203.81,DuPont,Asia,Critical,,,15,valid
16,Item_0018,471.45,201.4,DuPont,Asia,Critical,,,16,valid
17,Item_0019,17.83,238.18,DuPont,Asia,Standard,,,17,valid
18,Item_0020,562.94,285.44,SABIC,Asia,Critical,,,18,valid
19,Item_0021,84.01,259.85,DuPont,Asia,Critical,,,19,valid
20,Item_0022,3147.87,197.32,DuPont,Asia,Critical,,,20,valid
21,Item_0023,49.58,190.14,SABIC,Asia,Critical,,,21,valid
22,Item_0024,3.03,198.4,SABIC,Asia,Standard,,,22,valid
23,Item_0025,113.02,272.34,AirLiquide,Europe,Critical,,,23,valid
24,Item_0026,133.74,176.64,Reliance,NorthAmerica,Critical,,,24,valid
25,Item_0027,457.78,183.07,AirLiquide,Europe,Critical,,,25,valid
26,Item_0028,472.45,174.21,DuPont,Europe,Critical,,,26,valid
27,Item_0029,212.92,150.43,Reliance,NorthAmerica,Critical,,,27,valid
28,Item_0030,51.29,265.73,INEOS,SouthAmerica,Critical,,,28,valid
29,Item_0031,58.03,302.44,AirLiquide,SouthAmerica,Critical,,,29,valid
30,Item_0032,1.34,189.5,AirLiquide,Europe,Standard,,,30,valid
31,Item_0033,139.98,184.89,AirLiquide,SouthAmerica,Critical,,,31,valid
32,Item_0034,46.27,263.21,AirLiquide,SouthAmerica,Critical,,,32,valid
33,Item_0035,15.27,194.44,INEOS,Europe,Standard,,,33,valid
34,Item_0036,293.04,214.05,INEOS,Europe,Critical,,,34,valid
35,Item_0037,0.41,218.2,INEOS,Europe,Standard,,,35,valid
36,Item_0038,72.94,200.38,INEOS,Europe,Critical,,,36,valid
37,Item_0039,1866.04,215.32,INEOS,SouthAmerica,Critical,,,37,valid
38,Item_0040,1.64,166.12,INEOS,Europe,Standard,,,38,valid
39,Item_0041,235.21,184.83,INEOS,SouthAmerica,Critical,,,39,valid
40,Item_0042,1937.94,202.17,DuPont,Asia,Critical,,,40,valid
41,Item_0043,3.56,181.4,INEOS,Europe,Standard,,,41,valid
42,Item_0044,33.14,201.49,INEOS,SouthAmerica,Standard,,,42,valid
43,Item_0045,11.87,151.02,INEOS,Europe,Standard,,,43,valid
44,Item_0046,87.25,227.7,INEOS,SouthAmerica,Critical,,,44,valid
45,Item_0047,276.67,208.47,INEOS,Europe,Critical,,,45,valid
46,Item_0048,13.18,149.8,INEOS,SouthAmerica,Standard,,,46,valid
47,Item_0049,5.42,182.78,INEOS,Europe,Standard,,,47,valid
48,Item_0050,38.64,202.08,INEOS,NorthAmerica,Standard,,,48,valid
49,Item_0051,9.84,209.27,INEOS,Europe,Standard,,,49,valid
50,Item_0052,30.22,310.13,SABIC,Asia,Standard,,,50,valid
51,Item_0053,24.98,264.92,SABIC,Asia,Standard,,,51,valid
52,Item_0054,1042.92,159.93,Reliance,Asia,Critical,,,52,valid
53,Item_0055,259.9,154.75,Reliance,Asia,Critical,,,53,valid
54,Item_0056,845.81,205.03,Reliance,Asia,Critical,,,54,valid
55,Item_0057,984.31,179.53,INEOS,Europe,Critical,,,55,valid
56,Item_0058,0.89,295.63,Reliance,NorthAmerica,Standard,,,56,valid
57,Item_0059,170.01,205.88,AirLiquide,Europe,Critical,,,57,valid
58,Item_0060,1749.4,152.51,AirLiquide,Europe,Critical,,,58,valid
59,Item_0061,458.67,170.17,AirLiquide,Europe,Critical,,,59,valid
60,Item_0062,145.67,290.62,Clariant,SouthAmerica,Critical,,,60,valid
61,Item_0063,202.03,280.58,Clariant,Europe,Critical,,,61,valid
62,Item_0064,0.88,236.87,SABIC,SouthAmerica,Standard,,,62,valid
63,Item_0065,21.11,314.15,INEOS,SouthAmerica,Standard,,,63,valid
64,Item_0066,1.5,248.81,INEOS,SouthAmerica,Standard,,,64,valid
65,Item_0067,221.38,251.98,SABIC,SouthAmerica,Critical,,,65,valid
66,Item_0068,1.09,205.95,INEOS,Europe,Standard,,,66,valid
67,Item_0069,562.51,157.3,INEOS,Europe,Critical,,,67,valid
68,Item_0070,10.06,216.68,INEOS,SouthAmerica,Standard,,,68,valid
69,Item_0071,41.22,201.03,SABIC,SouthAmerica,Critical,,,69,valid
70,Item_0072,38.25,257.12,AirLiquide,Europe,Standard,,,70,valid
71,Item_0073,3.23,303.91,AirLiquide,Europe,Standard,,,71,valid
72,Item_0074,3183.56,241.08,INEOS,SouthAmerica,Critical,,,72,valid
73,Item_0075,2210.78,204.61,Reliance,NorthAmerica,Critical,,,73,valid
