,Unnamed: 0,item,supplier,volume,raw_price,Material Cost,Production Cost,Logistics Cost,currency,RiskScore,Incoterm,payment_duration,Type,CountrySupplier,CountryDestination,verified,considered,contributing_to,discounted_by,unit,status,offer_id,demand_id,price_usd,normalized_price,is_historic
0,0,Item_0001,Clariant,15.59,187.2699077,107.0477091,54.86607924,25.35611932,USD,90,DDP,90,Standard,USA,China,TRUE,TRUE,,,mT,free,0,0,187.2699077,187.2699077,FALSE
1,1,Item_0001,DuPont,15.59,199.0852302,113.9449328,52.33255785,32.80773958,USD,80,DDP,90,Standard,USA,China,TRUE,TRUE,"B19,B20","B19,B20",mT,free,1,0,199.0852302,199.0852302,FALSE
2,2,Item_0001,SABIC,15.59,178.2141241,98.47914684,53.29278061,26.44219669,USD,80,DDP,90,Standard,USA,China,TRUE,TRUE,B23,B23,mT,free,2,0,178.2141241,178.2141241,FALSE
3,3,Item_0002,BASF,9.57,225.6827379,125.2630058,62.7855016,37.63423049,USD,80,DDP,90,Standard,USA,China,TRUE,TRUE,,,mT,free,3,1,225.6827379,225.6827379,FALSE
4,4,Item_0002,DuPont,9.57,235.5702007,147.1698169,56.76142002,31.63896373,USD,90,DDP,90,Standard,USA,China,TRUE,TRUE,"B19,B20","B19,B20",mT,free,4,1,235.5702007,235.5702007,FALSE
5,5,Item_0002,SABIC,9.57,200.2748074,130.0234215,46.63587609,23.61550985,USD,90,DDP,90,Standard,USA,China,TRUE,TRUE,B23,B23,mT,free,5,1,200.2748074,200.2748074,FALSE
6,6,Item_0003,BASF,2642.95,213.1438725,132.2387471,55.82772063,25.07740469,USD,80,DDP,90,Critical,USA,China,TRUE,TRUE,,,mT,free,6,2,213.1438725,213.1438725,FALSE
7,7,Item_0003,DuPont,2642.95,165.8548748,94.93022533,38.99679749,31.92785194,USD,80,DDP,90,Critical,USA,China,TRUE,TRUE,"B19,B20","B19,B20",mT,free,7,2,165.8548748,165.8548748,FALSE
8,8,Item_0003,INEOS,2642.95,219.170179,138.5656294,54.02361287,26.5809367,USD,90,DDP,90,Critical,USA,China,TRUE,TRUE,B1,B1,mT,free,8,2,219.170179,219.170179,FALSE
9,9,Item_0003,SABIC,2642.95,211.1842996,127.4118706,47.72583212,36.04659696,USD,70,DDP,90,Critical,USA,China,TRUE,TRUE,B23,B23,mT,free,9,2,211.1842996,211.1842996,FALSE
10,10,Item_0004,Clariant,36.08,190.0619759,111.7343684,44.98414576,33.34346182,USD,80,DDP,90,Standard,Sweden,Sweden,TRUE,TRUE,,,mT,free,10,3,190.0619759,190.0619759,FALSE
11,11,Item_0004,Lyondell,36.08,176.9181351,108.6955365,41.25560014,26.96699846,USD,90,DDP,90,Standard,Argentina,Sweden,TRUE,TRUE,,,mT,free,11,3,176.9181351,176.9181351,FALSE
12,12,Item_0004,Mitsubishi,36.08,182.6317557,105.0420704,49.49135549,28.09832981,USD,79,DDP,90,Standard,Argentina,Sweden,TRUE,TRUE,,,mT,free,12,3,182.6317557,182.6317557,FALSE
13,13,Item_0005,BASF,2995.95,199.7725562,114.3181905,53.35230726,32.10205846,USD,80,DDP,90,Critical,USA,China,TRUE,TRUE,,,mT,free,13,4,199.7725562,199.7725562,FALSE
14,14,Item_0005,DuPont,2995.95,207.3995652,124.967539,48.22273783,34.20928837,USD,90,DDP,90,Critical,USA,China,TRUE,TRUE,"B19,B20","B19,B20",mT,free,14,4,207.3995652,207.3995652,FALSE
15,15,Item_0005,SABIC,2995.95,199.4719043,120.7863333,47.39470409,31.29086693,USD,90,DDP,90,Critical,USA,China,TRUE,TRUE,B23,B23,mT,free,15,4,199.4719043,199.4719043,FALSE
16,16,Item_0006,BASF,1733.52,150.7395919,82.09097949,40.74459045,27.90402202,USD,90,DDP,90,Critical,USA,China,TRUE,TRUE,,,mT,free,16,5,150.7395919,150.7395919,FALSE
17,17,Item_0006,DuPont,1733.52,194.0277832,114.7903719,53.50010243,25.73730881,USD,90,DDP,90,Critical,USA,China,TRUE,TRUE,"B19,B20","B19,B20",mT,free,17,5,194.0277832,194.0277832,FALSE
18,18,Item_0006,INEOS,1733.52,175.0396276,113.7005316,38.94478884,22.39430715,USD,80,DDP,90,Critical,USA,China,TRUE,TRUE,B1,B1,mT,free,18,5,175.0396276,175.0396276,FALSE
19,19,Item_0006,Mitsubishi,1733.52,164.0000215,92.44636726,44.20287463,27.35077961,USD,78,DDP,90,Critical,USA,China,TRUE,TRUE,,,mT,free,19,5,164.0000215,164.0000215,FALSE
20,20,Item_0006,SABIC,1733.52,186.1330831,118.0303114,40.10125755,28.00151412,USD,80,DDP,90,Critical,USA,China,TRUE,TRUE,B23,B23,mT,free,20,5,186.1330831,186.1330831,FALSE
21,21,Item_0007,Clariant,29.74,214.2273897,133.5931047,56.58428591,24.04999914,USD,90,DDP,90,Standard,Sweden,Sweden,TRUE,TRUE,,,mT,free,21,6,214.2273897,214.2273897,FALSE
22,22,Item_0007,Lyondell,29.74,177.6713318,105.2359714,44.8852283,27.55013216,USD,80,DDP,90,Standard,Argentina,Sweden,TRUE,TRUE,,,mT,free,22,6,177.6713318,177.6713318,FALSE
23,23,Item_0007,Mitsubishi,29.74,134.0214768,74.60402075,36.37088986,23.04656623,USD,90,DDP,90,Standard,Argentina,Sweden,TRUE,TRUE,,,mT,free,23,6,134.0214768,134.0214768,FALSE
24,24,Item_0008,BASF,1571.86,198.9851471,114.5349005,52.79352166,31.6567249,USD,80,DDP,90,Critical,USA,China,TRUE,TRUE,,,mT,free,24,7,198.9851471,198.9851471,FALSE
25,25,Item_0008,DuPont,1571.86,166.8424011,92.27499956,43.66827123,30.89913034,USD,80,DDP,90,Critical,USA,China,TRUE,TRUE,"B19,B20","B19,B20",mT,free,25,7,166.8424011,166.8424011,FALSE
26,26,Item_0008,INEOS,1571.86,194.1396533,118.4058202,52.86497724,22.86885584,USD,90,DDP,90,Critical,USA,China,TRUE,TRUE,B1,B1,mT,free,26,7,194.1396533,194.1396533,FALSE
27,27,Item_0008,SABIC,1571.86,194.8310683,106.5893429,55.25840853,32.9833168,USD,90,DDP,90,Critical,USA,China,TRUE,TRUE,B23,B23,mT,free,27,7,194.8310683,194.8310683,FALSE
28,28,Item_0009,Clariant,144.76,203.3870948,124.3306323,52.51179317,26.54466925,USD,80,DDP,90,Critical,Sweden,Sweden,TRUE,TRUE,,,mT,free,28,8,203.3870948,203.3870948,FALSE
29,29,Item_0009,Lyondell,144.76,176.7068436,107.2754458,48.07534827,21.35604959,USD,90,DDP,90,Critical,Argentina,Sweden,TRUE,TRUE,,,mT,free,29,8,176.7068436,176.7068436,FALSE
30,30,Item_0009,Mitsubishi,144.76,153.7852635,89.11490334,42.63126708,22.03909312,USD,80,DDP,90,Critical,Argentina,Sweden,TRUE,TRUE,,,mT,free,30,8,153.7852635,153.7852635,FALSE
31,31,Item_0010,Clariant,94.86,184.9594638,109.0801534,44.28328181,31.59602855,USD,90,DDP,90,Critical,Sweden,Sweden,TRUE,TRUE,,,mT,free,31,9,184.9594638,184.9594638,FALSE
32,32,Item_0010,Lyondell,94.86,170.4046901,107.6124753,38.89916256,23.89305222,USD,80,DDP,90,Critical,Argentina,Sweden,TRUE,TRUE,,,mT,free,32,9,170.4046901,170.4046901,FALSE
33,33,Item_0010,Mitsubishi,94.86,158.7793464,93.60446273,38.34459455,26.83028911,USD,90,DDP,90,Critical,Argentina,Sweden,TRUE,TRUE,,,mT,free,33,9,158.7793464,158.7793464,FALSE
34,34,Item_0011,BASF,4412.17,184.0657312,98.78552902,56.47200431,28.80819788,USD,80,DDP,90,Critical,USA,China,TRUE,TRUE,,,mT,free,34,10,184.0657312,184.0657312,FALSE
35,35,Item_0011,DuPont,4412.17,198.6025664,122.1829214,51.28549808,25.13414688,USD,80,DDP,90,Critical,USA,China,TRUE,TRUE,"B19,B20","B19,B20",mT,free,35,10,198.6025664,198.6025664,FALSE
36,36,Item_0011,INEOS,4412.17,184.8256464,100.936422,53.37677653,30.5124478,USD,90,DDP,90,Critical,USA,China,TRUE,TRUE,B1,B1,mT,free,36,10,184.8256464,184.8256464,FALSE
37,37,Item_0011,SABIC,4412.17,192.2392501,120.4572379,45.20991887,26.57209336,USD,90,DDP,90,Critical,USA,China,TRUE,TRUE,B23,B23,mT,free,37,10,192.2392501,192.2392501,FALSE
38,38,Item_0012,BASF,99.08,189.4154199,114.9823204,43.75158017,30.68151936,USD,90,DDP,90,Critical,USA,China,TRUE,TRUE,,,mT,free,38,11,189.4154199,189.4154199,FALSE
39,39,Item_0012,DuPont,99.08,216.9612206,138.351888,48.63658435,29.97274832,USD,80,DDP,90,Critical,USA,China,TRUE,TRUE,"B19,B20","B19,B20",mT,free,39,11,216.9612206,216.9612206,FALSE
40,40,Item_0012,SABIC,99.08,155.84298,94.07180367,40.6594414,21.1117349,USD,80,DDP,90,Critical,USA,China,TRUE,TRUE,B23,B23,mT,free,40,11,155.84298,155.84298,FALSE
41,41,Item_0014,BASF,131.54,185.6404434,108.8552321,50.77962911,26.00558217,USD,80,DDP,90,Critical,USA,China,TRUE,TRUE,,,mT,free,41,12,185.6404434,185.6404434,FALSE
42,42,Item_0014,DuPont,131.54,213.3430657,115.8271174,59.17748034,38.33846797,USD,90,DDP,90,Critical,USA,China,TRUE,TRUE,"B19,B20","B19,B20",mT,free,42,12,213.3430657,213.3430657,FALSE
43,43,Item_0014,SABIC,131.54,209.558881,120.4943492,56.10454705,32.95998476,USD,90,DDP,90,Critical,USA,China,TRUE,TRUE,B23,B23,mT,free,43,12,209.558881,209.558881,FALSE
44,44,Item_0015,BASF,229.63,238.8419805,147.8064829,55.45858969,35.57690789,USD,90,DDP,90,Critical,USA,China,TRUE,TRUE,,,mT,free,44,13,238.8419805,238.8419805,FALSE
45,45,Item_0015,DuPont,229.63,215.9524662,123.4945183,62.97926233,29.47868558,USD,80,DDP,90,Critical,USA,China,TRUE,TRUE,"B19,B20","B19,B20",mT,free,45,13,215.9524662,215.9524662,FALSE
46,46,Item_0015,SABIC,229.63,225.9376928,137.7468066,60.95841845,27.23246776,USD,80,DDP,90,Critical,USA,China,TRUE,TRUE,B23,B23,mT,free,46,13,225.9376928,225.9376928,FALSE
47,47,Item_0016,BASF,43.73,198.0003482,129.7238518,40.78072828,27.49576805,USD,90,DDP,90,Critical,USA,China,TRUE,TRUE,,,mT,free,47,14,198.0003482,198.0003482,FALSE
48,48,Item_0016,DuPont,43.73,214.7591172,125.3258014,55.33097287,34.10234284,USD,90,DDP,90,Critical,USA,China,TRUE,TRUE,"B19,B20","B19,B20",mT,free,48,14,214.7591172,214.7591172,FALSE
49,49,Item_0016,INEOS,43.73,144.7824713,79.55999804,45.61715109,19.60532222,USD,80,DDP,90,Critical,USA,China,TRUE,TRUE,B1,B1,mT,free,49,14,144.7824713,144.7824713,FALSE
50,50,Item_0016,SABIC,43.73,167.935638,105.3916805,42.33278159,20.21117595,USD,80,DDP,90,Critical,USA,China,TRUE,TRUE,B23,B23,mT,free,50,14,167.935638,167.935638,FALSE
51,51,Item_0017,BASF,653.46,176.1780025,95.6420539,55.78333925,24.75260932,USD,80,DDP,90,Critical,USA,China,TRUE,TRUE,,,mT,free,51,15,176.1780025,176.1780025,FALSE
52,52,Item_0017,DuPont,653.46,218.0395254,132.4678518,59.44499277,26.1266808,USD,90,DDP,90,Critical,USA,China,TRUE,TRUE,"B19,B20","B19,B20",mT,free,52,15,218.0395254,218.0395254,FALSE
53,53,Item_0017,SABIC,653.46,204.0276056,114.2052796,57.91892677,31.90339926,USD,90,DDP,90,Critical,USA,China,TRUE,TRUE,B23,B23,mT,free,53,15,204.0276056,204.0276056,FALSE
54,54,Item_0018,BASF,471.45,203.1614677,125.9112915,45.699812,31.55036424,USD,90,DDP,90,Critical,USA,China,TRUE,TRUE,,,mT,free,54,16,203.1614677,203.1614677,FALSE
55,55,Item_0018,DuPont,471.45,189.8080916,118.4332468,44.25280436,27.12204045,USD,80,DDP,90,Critical,USA,China,TRUE,TRUE,"B19,B20","B19,B20",mT,free,55,16,189.8080916,189.8080916,FALSE
56,56,Item_0018,SABIC,471.45,176.9504512,101.8621691,51.74707917,23.3412029,USD,80,DDP,90,Critical,USA,China,TRUE,TRUE,B23,B23,mT,free,56,16,176.9504512,176.9504512,FALSE
57,57,Item_0019,BASF,17.83,228.5473729,124.5892028,66.46366603,37.49450414,USD,80,DDP,90,Standard,USA,China,TRUE,TRUE,,,mT,free,57,17,228.5473729,228.5473729,FALSE
58,58,Item_0019,DuPont,17.83,201.2308405,118.304208,49.70090528,33.22572721,USD,90,DDP,90,Standard,USA,China,TRUE,TRUE,"B19,B20","B19,B20",mT,free,58,17,201.2308405,201.2308405,FALSE
59,59,Item_0019,SABIC,17.83,192.4738226,114.8684225,44.71805924,32.88734095,USD,90,DDP,90,Standard,USA,China,TRUE,TRUE,B23,B23,mT,free,59,17,192.4738226,192.4738226,FALSE
60,60,Item_0020,BASF,562.94,184.6537999,115.4225242,39.62427646,29.60699918,USD,80,DDP,90,Critical,USA,China,TRUE,TRUE,,,mT,free,60,18,184.6537999,184.6537999,FALSE
61,61,Item_0020,DuPont,562.94,203.5018204,109.7731609,59.3848339,34.34382565,USD,80,DDP,90,Critical,USA,China,TRUE,TRUE,"B19,B20","B19,B20",mT,free,61,18,203.5018204,203.5018204,FALSE
62,62,Item_0020,INEOS,562.94,154.9209935,90.34389982,41.35826251,23.21883122,USD,90,DDP,90,Critical,USA,China,TRUE,TRUE,B1,B1,mT,free,62,18,154.9209935,154.9209935,FALSE
63,63,Item_0020,SABIC,562.94,244.9666267,156.6760399,51.02109204,37.26949472,USD,90,DDP,90,Critical,USA,China,TRUE,TRUE,B24,B24,mT,free,63,18,244.9666267,244.9666267,FALSE
64,64,Item_0021,BASF,84.01,208.5209601,129.8684727,47.70325702,30.94923036,USD,90,DDP,90,Critical,USA,China,TRUE,TRUE,,,mT,free,64,19,208.5209601,208.5209601,FALSE
65,65,Item_0021,DuPont,84.01,245.9862262,161.0117314,54.80901018,30.16548463,USD,80,DDP,90,Critical,USA,China,TRUE,TRUE,"B19,B20","B19,B20",mT,free,65,19,245.9862262,245.9862262,FALSE
66,66,Item_0021,SABIC,84.01,198.2079553,127.2199068,40.84703069,30.14101782,USD,80,DDP,90,Critical,USA,China,TRUE,TRUE,B23,B23,mT,free,66,19,198.2079553,198.2079553,FALSE
67,67,Item_0022,BASF,3147.87,174.6968304,113.6708029,37.11514979,23.91087774,USD,90,DDP,90,Critical,USA,China,TRUE,TRUE,,,mT,free,67,20,174.6968304,174.6968304,FALSE
68,68,Item_0022,DuPont,3147.87,204.7852091,125.5775921,45.89281731,33.31479972,USD,90,DDP,90,Critical,USA,China,TRUE,TRUE,"B19,B20","B19,B20",mT,free,68,20,204.7852091,204.7852091,FALSE
69,69,Item_0022,INEOS,3147.87,189.7668917,124.5201309,38.45523517,26.79152558,USD,80,DDP,90,Critical,USA,China,TRUE,TRUE,B1,B1,mT,free,69,20,189.7668917,189.7668917,FALSE
70,70,Item_0022,SABIC,3147.87,170.6231798,106.1850147,35.73690324,28.7012619,USD,80,DDP,90,Critical,USA,China,TRUE,TRUE,B23,B23,mT,free,70,20,170.6231798,170.6231798,FALSE
71,71,Item_0023,BASF,49.58,217.5250312,133.3518091,53.40382707,30.76939505,USD,90,DDP,90,Critical,USA,China,TRUE,TRUE,,,mT,free,71,21,217.5250312,217.5250312,FALSE
72,72,Item_0023,Reliance,49.58,180.98205,118.7677699,36.25381926,25.9604609,USD,80,DDP,90,Critical,USA,China,TRUE,TRUE,,,mT,free,72,21,180.98205,180.98205,FALSE
73,73,Item_0023,SABIC,49.58,225.8382289,145.2654747,43.15723835,37.41551586,USD,90,DDP,90,Critical,USA,China,TRUE,TRUE,B23,B23,mT,free,73,21,225.8382289,225.8382289,FALSE
74,74,Item_0024,BASF,3.03,224.7000356,141.85933,45.38165637,37.45904918,USD,80,DDP,90,Standard,USA,India,TRUE,TRUE,,,mT,free,74,22,224.7000356,224.7000356,FALSE
75,75,Item_0024,Linde,3.03,166.8866767,104.4014292,40.64477736,21.84047011,USD,80,DDP,90,Standard,USA,India,TRUE,TRUE,,,mT,free,75,22,166.8866767,166.8866767,FALSE
76,76,Item_0024,SABIC,3.03,184.8593074,103.0136832,50.84317918,31.002445,USD,90,DDP,90,Standard,USA,India,TRUE,TRUE,B23,B23,mT,free,76,22,184.8593074,184.8593074,FALSE
77,77,Item_0025,AirLiquide,113.02,205.3780936,127.8941268,50.67655127,26.80741558,USD,80,DDP,90,Critical,USA,Spain,TRUE,TRUE,,,mT,free,77,23,205.3780936,205.3780936,FALSE
78,78,Item_0025,INEOS,113.02,172.3061111,100.532971,41.38861272,30.3845274,USD,90,DDP,90,Critical,Argentina,Spain,TRUE,TRUE,B1,B1,mT,free,78,23,172.3061111,172.3061111,FALSE
79,79,Item_0025,Lyondell,113.02,157.3089361,86.15341903,47.69086331,23.46465378,USD,90,DDP,90,Critical,Argentina,Spain,TRUE,TRUE,,,mT,free,79,23,157.3089361,157.3089361,FALSE
80,80,Item_0025,Mitsubishi,113.02,151.2046926,88.81538545,42.59414165,19.79516549,USD,80,DDP,90,Critical,Argentina,Spain,TRUE,TRUE,,,mT,free,80,23,151.2046926,151.2046926,FALSE
81,81,Item_0026,INEOS,133.74,179.6968875,113.9655093,44.41687163,21.31450665,USD,90,DDP,90,Critical,China,Canada,TRUE,TRUE,"B1,B5","B1,B5",mT,free,81,24,179.6968875,179.6968875,FALSE
82,82,Item_0026,Mitsubishi,133.74,174.0728698,102.6216476,44.90454129,26.54668084,USD,90,DDP,90,Critical,Argentina,Canada,TRUE,TRUE,,,mT,free,82,24,174.0728698,174.0728698,FALSE
83,83,Item_0026,Reliance,133.74,130.9312153,77.35821129,37.57638142,15.99662259,USD,80,DDP,90,Critical,Argentina,Canada,TRUE,TRUE,,,mT,free,83,24,130.9312153,130.9312153,FALSE
84,84,Item_0027,AirLiquide,457.78,213.9858097,129.7531436,56.99795491,27.23471119,USD,80,DDP,90,Critical,USA,Great Britain,TRUE,TRUE,,,mT,free,84,25,213.9858097,213.9858097,FALSE
85,85,Item_0027,INEOS,457.78,206.994182,127.0116653,54.94681957,25.03569704,USD,80,DDP,90,Critical,Argentina,Great Britain,TRUE,TRUE,B1,B1,mT,free,85,25,206.994182,206.994182,FALSE
86,86,Item_0027,Lyondell,457.78,177.6537374,104.0968344,51.05396572,22.5029373,USD,90,DDP,90,Critical,USA,Great Britain,TRUE,TRUE,,,mT,free,86,25,177.6537374,177.6537374,FALSE
87,87,Item_0028,DuPont,472.45,175.1499068,96.10665874,49.78807309,29.25517501,USD,90,DDP,90,Critical,USA,Switzerland,TRUE,TRUE,,,mT,free,87,26,175.1499068,175.1499068,FALSE
88,88,Item_0028,INEOS,472.45,165.933238,101.4257516,42.9493163,21.55817002,USD,80,DDP,90,Critical,Argentina,Switzerland,TRUE,TRUE,B1,B1,mT,free,88,26,165.933238,165.933238,FALSE
89,89,Item_0028,Lyondell,472.45,151.1583368,93.14340133,35.06023405,22.95470147,USD,90,DDP,90,Critical,Argentina,Switzerland,TRUE,TRUE,,,mT,free,89,26,151.1583368,151.1583368,FALSE
90,90,Item_0028,Mitsubishi,472.45,132.9282757,74.48724962,35.09183611,23.34919,USD,80,DDP,90,Critical,Argentina,Switzerland,TRUE,TRUE,,,mT,free,90,26,132.9282757,132.9282757,FALSE
91,91,Item_0029,INEOS,212.92,191.5317614,124.5336349,38.59825229,28.39987419,USD,90,DDP,90,Critical,China,Canada,TRUE,TRUE,"B1,B5","B1,B5",mT,free,91,27,191.5317614,191.5317614,FALSE
92,92,Item_0029,Mitsubishi,212.92,212.9768832,133.3341472,50.91301721,28.72971883,USD,90,DDP,90,Critical,USA,Canada,TRUE,TRUE,,,mT,free,92,27,212.9768832,212.9768832,FALSE
93,93,Item_0029,Reliance,212.92,206.9102342,135.3017194,48.16885847,23.43965635,USD,80,DDP,90,Critical,China,Canada,TRUE,TRUE,"B7,B16","B7,B16",mT,free,93,27,206.9102342,206.9102342,FALSE
94,94,Item_0030,INEOS,51.29,169.852187,102.9022224,41.3713141,25.57865059,USD,80,DDP,90,Critical,Argentina,Bolivia,TRUE,TRUE,"B1,B3","B1,B3",mT,free,94,28,169.852187,169.852187,FALSE
95,95,Item_0030,Linde,51.29,188.0861338,114.3908708,39.69516008,34.00010292,USD,80,DDP,90,Critical,Brazil,Bolivia,TRUE,TRUE,,,mT,free,95,28,188.0861338,188.0861338,FALSE
96,96,Item_0030,Lyondell,51.29,170.1055037,99.50188595,47.54246099,23.06115678,USD,90,DDP,90,Critical,Argentina,Bolivia,TRUE,TRUE,,,mT,free,96,28,170.1055037,170.1055037,FALSE
97,97,Item_0031,INEOS,58.03,235.1302864,131.1740238,65.61952587,38.33673671,USD,80,DDP,90,Critical,USA,Peru,TRUE,TRUE,"B1,B3","B1,B3",mT,free,97,29,235.1302864,235.1302864,FALSE
98,98,Item_0031,Linde,58.03,173.5010562,109.6171037,39.41374399,24.47020848,USD,90,DDP,90,Critical,USA,Peru,TRUE,TRUE,,,mT,free,98,29,173.5010562,173.5010562,FALSE
99,99,Item_0031,Mitsubishi,58.03,186.6012094,107.4565411,45.9599308,33.18473749,USD,90,DDP,90,Critical,USA,Peru,TRUE,TRUE,,,mT,free,99,29,186.6012094,186.6012094,FALSE
100,100,Item_0032,AirLiquide,1.34,218.5603852,117.4229356,66.21253468,34.92491496,USD,80,DDP,90,Standard,USA,Great Britain,TRUE,TRUE,,,mT,free,100,30,218.5603852,218.5603852,FALSE
101,101,Item_0032,BASF,1.34,203.82492,117.5824411,54.71060722,31.53187171,USD,90,DDP,90,Standard,USA,Great Britain,TRUE,TRUE,,,mT,free,101,30,203.82492,203.82492,FALSE
102,102,Item_0032,Mitsubishi,1.34,250.8623216,159.9422858,61.69956347,29.2204724,USD,80,DDP,90,Standard,USA,Great Britain,TRUE,TRUE,,,mT,free,102,30,250.8623216,250.8623216,FALSE
103,103,Item_0033,INEOS,139.98,201.0801387,111.1967155,58.54248424,31.34093899,USD,90,DDP,90,Critical,Argentina,Bolivia,TRUE,TRUE,"B1,B3","B1,B3",mT,free,103,31,201.0801387,201.0801387,FALSE
104,104,Item_0033,Linde,139.98,180.6151161,102.3059696,43.07830187,35.23084464,USD,90,DDP,90,Critical,Brazil,Bolivia,TRUE,TRUE,,,mT,free,104,31,180.6151161,180.6151161,FALSE
105,105,Item_0033,Lyondell,139.98,166.5175468,107.7015419,38.28833293,20.52767197,USD,80,DDP,90,Critical,Argentina,Bolivia,TRUE,TRUE,,,mT,free,105,31,166.5175468,166.5175468,FALSE
106,106,Item_0034,BASF,46.27,177.7750051,106.9317016,39.62423538,31.21906813,USD,90,DDP,90,Critical,Argentina,Bolivia,TRUE,TRUE,,,mT,free,106,32,177.7750051,177.7750051,FALSE
107,107,Item_0034,INEOS,46.27,164.1555743,91.61249385,45.48366781,27.05941261,USD,80,DDP,90,Critical,Argentina,Bolivia,TRUE,TRUE,"B1,B3","B1,B3",mT,free,107,32,164.1555743,164.1555743,FALSE
108,108,Item_0034,Lyondell,46.27,178.3196125,103.8066933,46.49435924,28.01855994,USD,90,DDP,90,Critical,Argentina,Bolivia,TRUE,TRUE,,,mT,free,108,32,178.3196125,178.3196125,FALSE
109,109,Item_0034,Reliance,46.27,161.1343441,92.41155852,39.9580585,28.76472712,USD,80,DDP,90,Critical,Argentina,Bolivia,TRUE,TRUE,,,mT,free,109,32,161.1343441,161.1343441,FALSE
110,110,Item_0035,AirLiquide,15.27,190.5900134,99.52873191,60.90829557,30.15298595,USD,90,DDP,90,Standard,USA,Spain,TRUE,TRUE,,,mT,free,110,33,190.5900134,190.5900134,FALSE
111,111,Item_0035,INEOS,15.27,154.8560103,89.43080792,35.9106263,29.51457612,USD,80,DDP,90,Standard,Argentina,Spain,TRUE,TRUE,B1,B1,mT,free,111,33,154.8560103,154.8560103,FALSE
112,112,Item_0035,Lyondell,15.27,172.0504603,100.5925869,45.84755222,25.61032114,USD,80,DDP,90,Standard,Argentina,Spain,TRUE,TRUE,,,mT,free,112,33,172.0504603,172.0504603,FALSE
113,113,Item_0036,AirLiquide,293.04,194.2908517,106.9294829,56.817827,30.54354183,USD,80,DDP,90,Critical,USA,Spain,TRUE,TRUE,,,mT,free,113,34,194.2908517,194.2908517,FALSE
114,114,Item_0036,INEOS,293.04,156.7478943,96.21573848,40.94527467,19.58688115,USD,90,DDP,90,Critical,Argentina,Spain,TRUE,TRUE,B1,B1,mT,free,114,34,156.7478943,156.7478943,FALSE
115,115,Item_0036,Lyondell,293.04,154.854449,87.26076085,44.05225924,23.54142895,USD,90,DDP,90,Critical,Argentina,Spain,TRUE,TRUE,,,mT,free,115,34,154.854449,154.854449,FALSE
116,116,Item_0037,INEOS,0.41,142.6213128,83.58817474,37.95526899,21.07786904,USD,80,DDP,90,Standard,Argentina,Sweden,TRUE,TRUE,B1,B1,mT,free,116,35,142.6213128,142.6213128,FALSE
117,117,Item_0037,Lyondell,0.41,180.3876988,103.1462508,49.03639351,28.20505452,USD,90,DDP,90,Standard,Argentina,Sweden,TRUE,TRUE,,,mT,free,117,35,180.3876988,180.3876988,FALSE
118,118,Item_0038,AirLiquide,72.94,209.2189517,132.2643514,45.25809722,31.69650301,USD,90,DDP,90,Critical,USA,Spain,TRUE,TRUE,,,mT,free,118,36,209.2189517,209.2189517,FALSE
119,119,Item_0038,INEOS,72.94,177.7735589,116.8359125,34.47682788,26.4608185,USD,80,DDP,90,Critical,Argentina,Spain,TRUE,TRUE,B1,B1,mT,free,119,36,177.7735589,177.7735589,FALSE
120,120,Item_0038,Lyondell,72.94,176.3876374,115.8931889,36.11660905,24.37783942,USD,80,DDP,90,Critical,Argentina,Spain,TRUE,TRUE,,,mT,free,120,36,176.3876374,176.3876374,FALSE
121,121,Item_0039,INEOS,1866.04,225.447037,137.7517785,58.16373276,29.53152572,USD,90,DDP,90,Critical,USA,Mexico,TRUE,TRUE,"B1,B3","B1,B3",mT,free,121,37,225.447037,225.447037,FALSE
122,122,Item_0039,Linde,1866.04,161.5560665,97.62045605,37.7345151,26.20109539,USD,80,DDP,90,Critical,USA,Mexico,TRUE,TRUE,,,mT,free,122,37,161.5560665,161.5560665,FALSE
123,123,Item_0039,Lyondell,1866.04,187.7922254,116.8489429,43.6782448,27.26503774,USD,90,DDP,90,Critical,USA,Mexico,TRUE,TRUE,,,mT,free,123,37,187.7922254,187.7922254,FALSE
124,124,Item_0039,SABIC,1866.04,225.1331616,135.6234033,53.63398054,35.87577778,USD,80,DDP,90,Critical,USA,Mexico,TRUE,TRUE,B24,B24,mT,free,124,37,225.1331616,225.1331616,FALSE
125,125,Item_0040,INEOS,1.64,191.9277567,113.4996946,46.08681143,32.34125067,USD,90,DDP,90,Standard,USA,Germany,TRUE,TRUE,B1,B1,mT,free,125,38,191.9277567,191.9277567,FALSE
126,126,Item_0040,Lyondell,1.64,169.9355825,92.67963878,47.17283645,30.08310721,USD,80,DDP,90,Standard,Germany,Germany,TRUE,TRUE,,,mT,free,126,38,169.9355825,169.9355825,FALSE
127,127,Item_0041,INEOS,235.21,224.4933335,131.5426444,57.04782746,35.90286168,USD,80,DDP,90,Critical,USA,Peru,TRUE,TRUE,"B1,B3","B1,B3",mT,free,127,39,224.4933335,224.4933335,FALSE
128,128,Item_0041,Linde,235.21,196.9489418,125.817883,43.86219653,27.2688623,USD,90,DDP,90,Critical,USA,Peru,TRUE,TRUE,,,mT,free,128,39,196.9489418,196.9489418,FALSE
129,129,Item_0041,Lyondell,235.21,173.97629,96.82614821,47.6791095,29.47103228,USD,80,DDP,90,Critical,USA,Peru,TRUE,TRUE,,,mT,free,129,39,173.97629,173.97629,FALSE
130,130,Item_0041,Mitsubishi,235.21,198.2985147,132.3995181,37.19407382,28.7049228,USD,90,DDP,90,Critical,USA,Peru,TRUE,TRUE,,,mT,free,130,39,198.2985147,198.2985147,FALSE
131,131,Item_0041,SABIC,235.21,244.7987352,152.0869612,55.93809029,36.77368373,USD,90,DDP,90,Critical,USA,Peru,TRUE,TRUE,B24,B24,mT,free,131,39,244.7987352,244.7987352,FALSE
132,132,Item_0042,Clariant,1937.94,167.4619068,104.3091073,41.63379171,21.51900776,USD,80,DDP,90,Critical,USA,China,TRUE,TRUE,,,mT,free,132,40,167.4619068,167.4619068,FALSE
133,133,Item_0042,DuPont,1937.94,182.0268242,97.74522745,51.4434741,32.83812261,USD,90,DDP,90,Critical,USA,China,TRUE,TRUE,B19,B19,mT,free,133,40,182.0268242,182.0268242,FALSE
134,134,Item_0042,INEOS,1937.94,166.8213435,99.71932292,42.40390707,24.69811351,USD,80,DDP,90,Critical,USA,China,TRUE,TRUE,B1,B1,mT,free,134,40,166.8213435,166.8213435,FALSE
135,135,Item_0042,Mitsubishi,1937.94,197.6601093,125.7981324,38.63152286,33.23045403,USD,80,DDP,90,Critical,USA,China,TRUE,TRUE,,,mT,free,135,40,197.6601093,197.6601093,FALSE
136,136,Item_0042,SABIC,1937.94,181.2268059,116.427214,43.49618763,21.30340424,USD,90,DDP,90,Critical,USA,China,TRUE,TRUE,B23,B23,mT,free,136,40,181.2268059,181.2268059,FALSE
137,137,Item_0043,INEOS,3.56,198.4732981,126.6565528,45.11408066,26.70266465,USD,90,DDP,90,Standard,USA,Germany,TRUE,TRUE,B1,B1,mT,free,137,41,198.4732981,198.4732981,FALSE
138,138,Item_0043,Lyondell,3.56,163.516448,109.1609129,35.14707251,19.20846261,USD,80,DDP,90,Standard,Germany,Germany,TRUE,TRUE,,,mT,free,138,41,163.516448,163.516448,FALSE
139,139,Item_0044,Clariant,33.14,134.2108725,80.48208457,28.82760074,24.90118724,USD,80,DDP,90,Standard,USA,Mexico,TRUE,TRUE,,,mT,free,139,42,134.2108725,134.2108725,FALSE
140,140,Item_0044,INEOS,33.14,226.7597232,126.8569473,62.97091476,36.93186114,USD,90,DDP,90,Standard,USA,Mexico,TRUE,TRUE,"B1,B3","B1,B3",mT,free,140,42,226.7597232,226.7597232,FALSE
141,141,Item_0044,Lyondell,33.14,204.5266383,112.077511,59.57640806,32.87271927,USD,90,DDP,90,Standard,USA,Mexico,TRUE,TRUE,,,mT,free,141,42,204.5266383,204.5266383,FALSE
142,142,Item_0044,SABIC,33.14,221.1398487,121.836859,61.750637,37.55235273,USD,80,DDP,90,Standard,USA,Mexico,TRUE,TRUE,B24,B24,mT,free,142,42,221.1398487,221.1398487,FALSE
143,143,Item_0045,INEOS,11.87,178.3140211,97.68511897,45.86041883,34.76848331,USD,90,DDP,90,Standard,USA,Germany,TRUE,TRUE,B1,B1,mT,free,143,43,178.3140211,178.3140211,FALSE
144,144,Item_0045,Lyondell,11.87,161.5696154,104.0194072,33.59704237,23.9531659,USD,80,DDP,90,Standard,Germany,Germany,TRUE,TRUE,,,mT,free,144,43,161.5696154,161.5696154,FALSE
145,145,Item_0046,INEOS,87.25,215.6676479,141.1674512,44.15224789,30.34794881,USD,80,DDP,90,Critical,USA,Brazil,TRUE,TRUE,"B1,B3","B1,B3",mT,free,145,44,215.6676479,215.6676479,FALSE
146,146,Item_0046,Linde,87.25,184.4528902,111.4677212,49.23307227,23.75209679,USD,90,DDP,90,Critical,USA,Brazil,TRUE,TRUE,,,mT,free,146,44,184.4528902,184.4528902,FALSE
147,147,Item_0046,Lyondell,87.25,173.8726995,104.3217353,43.78736894,25.7635952,USD,80,DDP,90,Critical,USA,Brazil,TRUE,TRUE,,,mT,free,147,44,173.8726995,173.8726995,FALSE
148,148,Item_0046,Mitsubishi,87.25,205.0002001,132.2667793,41.67596595,31.0574548,USD,90,DDP,90,Critical,USA,Brazil,TRUE,TRUE,,,mT,free,148,44,205.0002001,205.0002001,FALSE
149,149,Item_0046,SABIC,87.25,241.3320024,147.7280526,56.09006001,37.51388975,USD,90,DDP,90,Critical,USA,Brazil,TRUE,TRUE,B24,B24,mT,free,149,44,241.3320024,241.3320024,FALSE
150,150,Item_0047,AirLiquide,276.67,190.4250507,109.0654376,49.82227314,31.53733992,USD,90,DDP,90,Critical,USA,Great Britain,TRUE,TRUE,,,mT,free,150,45,190.4250507,190.4250507,FALSE
151,151,Item_0047,INEOS,276.67,188.0546167,114.7601904,44.31801387,28.97641245,USD,80,DDP,90,Critical,Argentina,Great Britain,TRUE,TRUE,B1,B1,mT,free,151,45,188.0546167,188.0546167,FALSE
152,152,Item_0047,Lyondell,276.67,202.8743781,123.0027187,49.3825277,30.48913175,USD,80,DDP,90,Critical,Argentina,Great Britain,TRUE,TRUE,,,mT,free,152,45,202.8743781,202.8743781,FALSE
153,153,Item_0048,INEOS,13.18,199.370508,129.5979453,41.88966417,27.88289855,USD,90,DDP,90,Standard,Argentina,Bolivia,TRUE,TRUE,"B1,B3","B1,B3",mT,free,153,46,199.370508,199.370508,FALSE
154,154,Item_0048,Linde,13.18,240.4720974,146.8403221,58.47865133,35.15312391,USD,80,DDP,90,Standard,Brazil,Bolivia,TRUE,TRUE,,,mT,free,154,46,240.4720974,240.4720974,FALSE
155,155,Item_0049,INEOS,5.42,169.7317379,106.8973552,38.77368762,24.06069505,USD,90,DDP,90,Standard,Argentina,Sweden,TRUE,TRUE,B1,B1,mT,free,155,47,169.7317379,169.7317379,FALSE
156,156,Item_0049,Lyondell,5.42,152.9310529,103.1163725,30.38889768,19.42578274,USD,80,DDP,90,Standard,Argentina,Sweden,TRUE,TRUE,,,mT,free,156,47,152.9310529,152.9310529,FALSE
157,157,Item_0050,INEOS,38.64,153.8523045,82.37213244,46.85740727,24.62276477,USD,80,DDP,90,Standard,China,Canada,TRUE,TRUE,"B1,B5","B1,B5",mT,free,157,48,153.8523045,153.8523045,FALSE
158,158,Item_0050,Reliance,38.64,184.3692121,103.4346619,52.84277106,28.09177907,USD,90,DDP,90,Standard,USA,Canada,TRUE,TRUE,"B7,B8,B9,B16","B7,B9,B16",mT,free,158,48,184.3692121,184.3692121,FALSE
159,159,Item_0051,INEOS,9.84,181.817054,111.5175208,40.15414535,30.14538792,USD,90,DDP,90,Standard,Argentina,Sweden,TRUE,TRUE,B1,B1,mT,free,159,49,181.817054,181.817054,FALSE
160,160,Item_0051,Lyondell,9.84,145.9642008,84.27158212,39.99639611,21.69622252,USD,80,DDP,90,Standard,Argentina,Sweden,TRUE,TRUE,,,mT,free,160,49,145.9642008,145.9642008,FALSE
161,161,Item_0052,Lyondell,30.22,194.7842371,108.6158098,49.380393,36.78803427,USD,80,DDP,90,Standard,USA,China,TRUE,TRUE,,,mT,free,161,50,194.7842371,194.7842371,FALSE
162,162,Item_0052,Mitsubishi,30.22,245.0946205,148.5116878,65.03041984,31.55251286,USD,90,DDP,90,Standard,USA,China,TRUE,TRUE,,,mT,free,162,50,245.0946205,245.0946205,FALSE
163,163,Item_0052,SABIC,30.22,239.2010275,153.3268669,49.85658961,36.01757103,USD,90,DDP,90,Standard,USA,China,TRUE,TRUE,B23,B23,mT,free,163,50,239.2010275,239.2010275,FALSE
164,164,Item_0053,BASF,24.98,283.7182138,164.5498891,78.99643918,40.17188549,USD,80,DDP,90,Standard,USA,China,TRUE,TRUE,,,mT,free,164,51,283.7182138,283.7182138,FALSE
165,165,Item_0053,Reliance,24.98,298.9311489,185.7280483,66.97266715,46.23043341,USD,90,DDP,90,Standard,USA,China,TRUE,TRUE,,,mT,free,165,51,298.9311489,298.9311489,FALSE
166,166,Item_0053,SABIC,24.98,286.1290191,172.9628382,66.46958732,46.69659359,USD,80,DDP,90,Standard,USA,China,TRUE,TRUE,B24,B24,mT,free,166,51,286.1290191,286.1290191,FALSE
167,167,Item_0054,Clariant,1042.92,221.861218,147.9296604,44.9222739,29.00928376,USD,80,DDP,90,Critical,USA,China,TRUE,TRUE,,,mT,free,167,52,221.861218,221.861218,FALSE
168,168,Item_0054,DuPont,1042.92,181.0632593,99.64195011,54.78663078,26.63467846,USD,90,DDP,90,Critical,USA,China,TRUE,TRUE,B19,B19,mT,free,168,52,181.0632593,181.0632593,FALSE
169,169,Item_0054,Reliance,1042.92,178.5298127,115.4964976,38.48367054,24.54964457,USD,80,DDP,90,Critical,USA,China,TRUE,TRUE,"B7,B18","B7,B18",mT,free,169,52,178.5298127,178.5298127,FALSE
170,170,Item_0054,SABIC,1042.92,161.5279642,97.78224961,43.44016559,20.30554898,USD,90,DDP,90,Critical,USA,China,TRUE,TRUE,B23,B23,mT,free,170,52,161.5279642,161.5279642,FALSE
171,171,Item_0055,Clariant,259.9,190.9594922,114.6108973,42.78812042,33.5604744,USD,80,DDP,90,Critical,USA,China,TRUE,TRUE,,,mT,free,171,53,190.9594922,190.9594922,FALSE
172,172,Item_0055,DuPont,259.9,163.356443,96.28569119,44.99543879,22.07531306,USD,90,DDP,90,Critical,USA,China,TRUE,TRUE,B19,B19,mT,free,172,53,163.356443,163.356443,FALSE
173,173,Item_0055,Reliance,259.9,190.0583811,121.6515781,40.76552355,27.64127952,USD,80,DDP,90,Critical,USA,China,TRUE,TRUE,"B7,B18","B7,B18",mT,free,173,53,190.0583811,190.0583811,FALSE
174,174,Item_0055,SABIC,259.9,147.1356472,90.68229149,36.52895693,19.9243988,USD,90,DDP,90,Critical,USA,China,TRUE,TRUE,B23,B23,mT,free,174,53,147.1356472,147.1356472,FALSE
175,175,Item_0056,Clariant,845.81,184.7205298,119.9984393,40.99933555,23.72275499,USD,80,DDP,90,Critical,USA,India,TRUE,TRUE,,,mT,free,175,54,184.7205298,184.7205298,FALSE
176,176,Item_0056,DuPont,845.81,205.4263817,131.6990416,47.68321549,26.04412454,USD,90,DDP,90,Critical,USA,India,TRUE,TRUE,B19,B19,mT,free,176,54,205.4263817,205.4263817,FALSE
177,177,Item_0056,Reliance,845.81,145.8052068,87.87654597,35.30011478,22.62854604,USD,80,DDP,90,Critical,USA,India,TRUE,TRUE,"B7,B18","B7,B18",mT,free,177,54,145.8052068,145.8052068,FALSE
178,178,Item_0056,SABIC,845.81,186.2840528,118.1099439,42.18329483,25.99081408,USD,90,DDP,90,Critical,USA,India,TRUE,TRUE,B23,B23,mT,free,178,54,186.2840528,186.2840528,FALSE
179,179,Item_0057,Clariant,984.31,215.1285541,127.4310687,55.86140046,31.83608497,USD,80,DDP,90,Critical,USA,Germany,TRUE,TRUE,,,mT,free,179,55,215.1285541,215.1285541,FALSE
180,180,Item_0057,INEOS,984.31,215.3031115,138.0557551,43.94787169,33.29948479,USD,90,DDP,90,Critical,USA,Germany,TRUE,TRUE,B1,B1,mT,free,180,55,215.3031115,215.3031115,FALSE
181,181,Item_0057,Mitsubishi,984.31,173.7288078,99.34373867,47.39202125,26.99304789,USD,90,DDP,90,Critical,USA,Germany,TRUE,TRUE,,,mT,free,181,55,173.7288078,173.7288078,FALSE
182,182,Item_0058,INEOS,0.89,203.2709691,118.3604509,59.33428382,25.57623439,USD,90,DDP,90,Standard,China,USA,TRUE,TRUE,"B1,B5","B1,B5",mT,free,182,56,203.2709691,203.2709691,FALSE
183,183,Item_0058,Reliance,0.89,244.6388899,137.5038103,63.72302569,43.41205395,USD,80,DDP,90,Standard,USA,USA,TRUE,TRUE,"B7,B10,B11,B16","B7,B11,B16",mT,free,183,56,244.6388899,244.6388899,FALSE
184,184,Item_0059,AirLiquide,170.01,192.5100729,117.190533,45.06519632,30.25434352,USD,80,DDP,90,Critical,USA,Great Britain,TRUE,TRUE,,,mT,free,184,57,192.5100729,192.5100729,FALSE
185,185,Item_0059,Clariant,170.01,190.2446064,124.7455248,42.19620216,23.30287944,USD,90,DDP,90,Critical,USA,Great Britain,TRUE,TRUE,,,mT,free,185,57,190.2446064,190.2446064,FALSE
186,186,Item_0059,Reliance,170.01,159.7653776,86.03111148,50.77057659,22.96368949,USD,80,DDP,90,Critical,USA,Great Britain,TRUE,TRUE,,,mT,free,186,57,159.7653776,159.7653776,FALSE
187,187,Item_0060,AirLiquide,1749.4,195.8691154,114.1123263,50.73178079,31.02500838,USD,80,DDP,90,Critical,USA,Great Britain,TRUE,TRUE,,,mT,free,187,58,195.8691154,195.8691154,FALSE
188,188,Item_0060,BASF,1749.4,172.6068635,103.2329293,44.753666,24.62026818,USD,90,DDP,90,Critical,USA,Great Britain,TRUE,TRUE,,,mT,free,188,58,172.6068635,172.6068635,FALSE
189,189,Item_0060,Mitsubishi,1749.4,202.0178314,124.5875545,52.13325682,25.29702007,USD,90,DDP,90,Critical,USA,Great Britain,TRUE,TRUE,,,mT,free,189,58,202.0178314,202.0178314,FALSE
190,190,Item_0061,AirLiquide,458.67,206.3433347,132.1474578,40.62669473,33.56918223,USD,90,DDP,90,Critical,USA,Great Britain,TRUE,TRUE,,,mT,free,190,59,206.3433347,206.3433347,FALSE
191,191,Item_0061,Mitsubishi,458.67,227.8867055,138.7314403,51.67766498,37.4776002,USD,80,DDP,90,Critical,USA,Great Britain,TRUE,TRUE,,,mT,free,191,59,227.8867055,227.8867055,FALSE
192,192,Item_0061,Reliance,458.67,221.1915507,134.8857065,50.70777757,35.59806662,USD,80,DDP,90,Critical,USA,Great Britain,TRUE,TRUE,,,mT,free,192,59,221.1915507,221.1915507,FALSE
193,193,Item_0062,Clariant,145.67,337.1332868,208.8278992,76.80658997,51.49879767,USD,80,DDP,90,Critical,USA,Mexico,TRUE,TRUE,,,mT,free,193,60,337.1332868,337.1332868,FALSE
194,194,Item_0062,INEOS,145.67,349.636635,227.7085705,80.87791483,41.05014971,USD,90,DDP,90,Critical,USA,Mexico,TRUE,TRUE,"B1,B3","B1,B3",mT,free,194,60,349.636635,349.636635,FALSE
195,195,Item_0062,Mitsubishi,145.67,315.3301266,185.3656779,76.23045975,53.73398905,USD,90,DDP,90,Critical,USA,Mexico,TRUE,TRUE,,,mT,free,195,60,315.3301266,315.3301266,FALSE
196,196,Item_0063,AirLiquide,202.03,241.5670544,135.7304826,68.47589964,37.36067218,USD,90,DDP,90,Critical,USA,Great Britain,TRUE,TRUE,,,mT,free,196,61,241.5670544,241.5670544,FALSE
197,197,Item_0063,Clariant,202.03,254.8676817,149.6644939,63.44614888,41.75703895,USD,80,DDP,90,Critical,India,Great Britain,TRUE,TRUE,,,mT,free,197,61,254.8676817,254.8676817,FALSE
198,198,Item_0063,DuPont,202.03,286.1308712,172.2312996,70.1317248,43.76784687,USD,90,DDP,90,Critical,India,Great Britain,TRUE,TRUE,,,mT,free,198,61,286.1308712,286.1308712,FALSE
199,199,Item_0063,INEOS,202.03,219.937179,121.2208656,57.16801936,41.54829405,USD,80,DDP,90,Critical,India,Great Britain,TRUE,TRUE,"B1,B3","B1,B3",mT,free,199,61,219.937179,219.937179,FALSE
200,200,Item_0064,Mitsubishi,0.88,216.8764851,127.2099706,49.53479108,40.13172342,USD,90,DDP,90,Standard,USA,Mexico,TRUE,TRUE,,,mT,free,200,62,216.8764851,216.8764851,FALSE
201,201,Item_0064,Reliance,0.88,265.3886441,165.2280921,64.27486405,35.88568801,USD,80,DDP,90,Standard,USA,Mexico,TRUE,TRUE,,,mT,free,201,62,265.3886441,265.3886441,FALSE
202,202,Item_0064,SABIC,0.88,253.9445046,169.9314306,49.6686414,34.34443258,USD,80,DDP,90,Standard,USA,Mexico,TRUE,TRUE,B24,B24,mT,free,202,62,253.9445046,253.9445046,FALSE
203,203,Item_0065,INEOS,21.11,245.9787441,158.727084,54.31042219,32.94123789,USD,90,DDP,90,Standard,USA,Mexico,TRUE,TRUE,"B1,B3","B1,B3",mT,free,203,63,245.9787441,245.9787441,FALSE
204,204,Item_0065,Linde,21.11,235.1723615,151.0410938,47.39362919,36.73763854,USD,90,DDP,90,Standard,USA,Mexico,TRUE,TRUE,,,mT,free,204,63,235.1723615,235.1723615,FALSE
205,205,Item_0065,Reliance,21.11,205.5700315,120.7065332,47.5242541,37.33924417,USD,80,DDP,90,Standard,USA,Mexico,TRUE,TRUE,,,mT,free,205,63,205.5700315,205.5700315,FALSE
206,206,Item_0066,INEOS,1.5,178.9225596,112.6707356,38.75858033,27.49324366,USD,80,DDP,90,Standard,Argentina,Bolivia,TRUE,TRUE,"B1,B3","B1,B3",mT,free,206,64,178.9225596,178.9225596,FALSE
207,207,Item_0066,Mitsubishi,1.5,163.4009232,93.61943756,48.03024796,21.7512377,USD,80,DDP,90,Standard,Argentina,Bolivia,TRUE,TRUE,,,mT,free,207,64,163.4009232,163.4009232,FALSE
208,208,Item_0066,SABIC,1.5,167.4753141,94.65663504,44.78578909,28.03289,USD,90,DDP,90,Standard,Argentina,Bolivia,TRUE,TRUE,,,mT,free,208,64,167.4753141,167.4753141,FALSE
209,209,Item_0067,BASF,221.38,229.4923039,137.9761463,56.4159886,35.100169,USD,90,DDP,90,Critical,USA,Colombia,TRUE,TRUE,,,mT,free,209,65,229.4923039,229.4923039,FALSE
210,210,Item_0067,INEOS,221.38,233.7529989,135.3708685,62.5279804,35.85414996,USD,80,DDP,90,Critical,USA,Colombia,TRUE,TRUE,"B1,B3","B1,B3",mT,free,210,65,233.7529989,233.7529989,FALSE
211,211,Item_0067,SABIC,221.38,207.5459903,123.7849257,52.79265026,30.9684144,USD,90,DDP,90,Critical,USA,Colombia,TRUE,TRUE,B24,B24,mT,free,211,65,207.5459903,207.5459903,FALSE
212,212,Item_0068,INEOS,1.09,162.3632776,102.6833611,36.54882803,23.1310885,USD,90,DDP,90,Standard,Chile,Germany,TRUE,TRUE,B1,B1,mT,free,212,66,162.3632776,162.3632776,FALSE
213,213,Item_0068,Linde,1.09,134.3549206,78.210801,33.33168992,22.81242967,USD,80,DDP,90,Standard,Chile,Germany,TRUE,TRUE,,,mT,free,213,66,134.3549206,134.3549206,FALSE
214,214,Item_0068,SABIC,1.09,153.9223168,96.1910408,34.30258286,23.42869316,USD,80,DDP,90,Standard,Chile,Germany,TRUE,TRUE,B24,B24,mT,free,214,66,153.9223168,153.9223168,FALSE
215,215,Item_0069,AirLiquide,562.51,168.214192,97.7724031,39.33928493,31.102504,USD,80,DDP,90,Critical,Chile,Germany,TRUE,TRUE,,,mT,free,215,67,168.214192,168.214192,FALSE
216,216,Item_0069,INEOS,562.51,175.5831561,101.5157751,44.26428443,29.80309659,USD,90,DDP,90,Critical,Chile,Germany,TRUE,TRUE,B1,B1,mT,free,216,67,175.5831561,175.5831561,FALSE
217,217,Item_0069,Linde,562.51,152.4752912,85.25233698,39.18106796,28.04188625,USD,90,DDP,90,Critical,Chile,Germany,TRUE,TRUE,,,mT,free,217,67,152.4752912,152.4752912,FALSE
218,218,Item_0070,Clariant,10.06,184.8534253,105.6046392,55.47202228,23.77676384,USD,80,DDP,90,Standard,USA,Colombia,TRUE,TRUE,,,mT,free,218,68,184.8534253,184.8534253,FALSE
219,219,Item_0070,INEOS,10.06,209.0989611,128.1167553,45.97666716,35.00553859,USD,80,DDP,90,Standard,USA,Colombia,TRUE,TRUE,"B1,B3","B1,B3",mT,free,219,68,209.0989611,209.0989611,FALSE
220,220,Item_0070,Linde,10.06,181.5123143,105.4123784,45.83817589,30.26176006,USD,90,DDP,90,Standard,USA,Colombia,TRUE,TRUE,,,mT,free,220,68,181.5123143,181.5123143,FALSE
221,221,Item_0070,Lyondell,10.06,223.6012291,137.4917707,47.63390984,38.4755486,USD,90,DDP,90,Standard,USA,Colombia,TRUE,TRUE,,,mT,free,221,68,223.6012291,223.6012291,FALSE
222,222,Item_0071,INEOS,41.22,211.9439751,132.3800033,47.71928972,31.84468208,USD,80,DDP,90,Critical,USA,Peru,TRUE,TRUE,"B1,B3","B1,B3",mT,free,222,69,211.9439751,211.9439751,FALSE
223,223,Item_0071,Lyondell,41.22,231.8548692,145.8797406,48.03012438,37.94500422,USD,80,DDP,90,Critical,USA,Peru,TRUE,TRUE,,,mT,free,223,69,231.8548692,231.8548692,FALSE
224,224,Item_0071,SABIC,41.22,256.9747454,163.0236213,56.24904119,37.70208287,USD,90,DDP,90,Critical,USA,Peru,TRUE,TRUE,B24,B24,mT,free,224,69,256.9747454,256.9747454,FALSE
225,225,Item_0072,AirLiquide,38.25,185.5649165,113.5240414,42.71570972,29.32516539,USD,80,DDP,90,Standard,USA,Great Britain,TRUE,TRUE,,,mT,free,225,70,185.5649165,185.5649165,FALSE
226,226,Item_0072,Clariant,38.25,181.8850508,104.4986354,45.29872959,32.08768582,USD,90,DDP,90,Standard,USA,Great Britain,TRUE,TRUE,,,mT,free,226,70,181.8850508,181.8850508,FALSE
227,227,Item_0072,Mitsubishi,38.25,201.2582227,118.0108729,54.72972602,28.51762376,USD,90,DDP,90,Standard,USA,Great Britain,TRUE,TRUE,,,mT,free,227,70,201.2582227,201.2582227,FALSE
228,228,Item_0073,AirLiquide,3.23,220.4292111,124.834598,57.15692623,38.43768683,USD,80,DDP,90,Standard,USA,Great Britain,TRUE,TRUE,,,mT,free,228,71,220.4292111,220.4292111,FALSE
229,229,Item_0073,Linde,3.23,174.3212248,95.23957007,54.33702563,24.74462908,USD,80,DDP,90,Standard,USA,Great Britain,TRUE,TRUE,,,mT,free,229,71,174.3212248,174.3212248,FALSE
230,230,Item_0073,Reliance,3.23,173.0915165,105.2535529,45.69934704,22.1386165,USD,90,DDP,90,Standard,USA,Great Britain,TRUE,TRUE,,,mT,free,230,71,173.0915165,173.0915165,FALSE
231,231,Item_0074,Clariant,3183.56,193.0469266,112.9526107,48.41013928,31.68417664,USD,90,DDP,90,Critical,USA,Mexico,TRUE,TRUE,,,mT,free,231,72,193.0469266,193.0469266,FALSE
232,232,Item_0074,INEOS,3183.56,187.3019,103.1927242,49.29734079,34.81183506,USD,90,DDP,90,Critical,USA,Mexico,TRUE,TRUE,"B1,B3","B1,B3",mT,free,232,72,187.3019,187.3019,FALSE
233,233,Item_0074,Linde,3183.56,170.8867563,98.68225821,50.18682953,22.01766855,USD,80,DDP,90,Critical,USA,Mexico,TRUE,TRUE,,,mT,free,233,72,170.8867563,170.8867563,FALSE
234,234,Item_0075,INEOS,2210.78,177.4111365,117.2304754,37.87307687,22.30758424,USD,80,DDP,90,Critical,India,Canada,TRUE,TRUE,,,mT,free,234,73,177.4111365,177.4111365,FALSE
235,235,Item_0075,Linde,2210.78,365.0564901,203.3657384,107.2289719,54.46177982,USD,80,DDP,90,Critical,India,Canada,TRUE,TRUE,,,mT,free,235,73,365.0564901,365.0564901,FALSE
236,236,Item_0075,Reliance,2210.78,169.7481812,96.53633903,46.02243285,27.18940932,USD,90,DDP,90,Critical,India,Canada,TRUE,TRUE,,,mT,free,236,73,169.7481812,169.7481812,FALSE