<svg width="1900" height="500" xmlns="http://www.w3.org/2000/svg">
 <title>Asset 4</title>

 <g>
  <title>background</title>
  <rect fill="none" id="canvas_background" height="502" width="1902" y="-1" x="-1"/>
 </g>
 <g>
  <title>Layer 1</title>
  <g id="Layer_2">
   <g id="svg_9">
    <path stroke="null" id="svg_2" d="m349.580012,434.254999l-89.76,0l0,-31.72c-17.95,26.93 -56.85,37.7 -90.37,37.7c-74.8,0 -131,-64.63 -131,-137.63s56.25,-138.24 131,-138.24c33.52,0 67,9.57 90.37,38.3l0,-31.72l89.76,0l0,263.31zm-152.6,-197.48c-35.91,0 -62.83,31.11 -62.83,65.83s26.92,65.82 62.83,65.82s62.84,-31.12 62.84,-65.82s-26.94,-65.83 -62.84,-65.83z"/>
    <path stroke="null" id="svg_3" d="m490.390012,302.604999l0,131.65l-89.71,0l0,-263.91l89.76,0l0,32.32c13.76,-19.75 36.5,-38.3 69.42,-38.3c7.78,0 19.75,2.39 26.93,6l0,81.39l-1.2,0c-9,-10.77 -22.14,-15 -35.91,-15c-33.56,0.02 -59.29,34.13 -59.29,65.85z"/>
    <path stroke="null" id="svg_4" d="m692.310012,303.194999c0,30.52 12,68.82 53.86,68.82c27.52,0 49.07,-12 52.06,-35.9l87.37,0c-9,58.65 -62.24,104.12 -142.43,104.12c-91.56,0 -146.62,-62.24 -146.62,-137.63s58.65,-138.24 146.62,-138.24c85.58,0 140,50.87 144.22,111.9l-89.16,0c-1.2,-25.73 -21,-41.89 -52.06,-41.89c-40.7,0.05 -53.86,38.9 -53.86,68.82z"/>
    <path stroke="null" id="svg_5" d="m1192.110012,434.254999l-89.76,0l0,-149.61c0,-31.11 -12,-47.87 -40.1,-47.87s-50.26,29.92 -50.26,65.83l0,131.65l-89.76,0l0,-374.54l89.76,0l0,143c18,-22.74 46.08,-38.3 80.78,-38.3c70.62,0 99.34,48.47 99.34,120.28l0,149.56z"/>
    <path stroke="null" id="svg_6" d="m1238.680012,434.254999l0,-374.54l89.76,0l0,374.54l-89.76,0z"/>
    <path stroke="null" id="svg_7" d="m1664.150012,313.424999l-204.66,0c0,30.52 21.54,62.83 56.85,62.83c31.71,0 51.47,-20.95 52.06,-40.09l91.56,0c-15.55,69.42 -71.81,104.12 -141.82,104.12c-91,0 -153.8,-53.86 -153.8,-137.63c0,-82.59 65.23,-138.24 153.8,-138.24c80.19,0 146.61,47.87 146.61,132.25c0,5.34 -0.6,11.32 -0.6,16.76zm-85.58,-42.49s-4.18,-49.08 -58.64,-49.08c-56.25,0 -59.25,49.08 -59.25,49.08l117.89,0z"/>
    <path stroke="null" id="svg_8" d="m1813.680012,434.254999l-89.17,0l0,-194.49l-47.83,0l0,-69.42l47.88,0l0,-100.53l89.12,0l0,100.53l47.87,0l0,69.42l-47.87,0l0,194.49z"/>
   </g>
  </g>
 </g>
</svg>